testbench/fifo.vcd
$date
	Sat Aug 24 20:54:19 2019
$end
$version
	ModelSim Version 10.3
$end
$timescale
	1ns
$end

$scope module testrunner $end

$scope function build $end
$upscope $end

$scope task run $end
$upscope $end

$scope module __ts $end

$scope function build $end
$upscope $end

$scope task run $end
$upscope $end

$scope module fifo_ut $end

$scope task step $end
$upscope $end

$scope task reset $end
$upscope $end

$scope function build $end
$upscope $end

$scope task setup $end
$upscope $end

$scope task teardown $end
$upscope $end

$scope task run $end

$scope begin test_rst $end
$upscope $end

$scope begin test_write_read_single_data $end
$upscope $end

$scope begin test_write_read_full $end
$upscope $end

$scope begin test_error $end
$upscope $end
$upscope $end

$scope module my_fifo $end
$var wire 1 ! rst $end
$var wire 1 " clk $end
$var wire 1 # wr $end
$var wire 1 $ rd $end
$var wire 1 % wdata [31] $end
$var wire 1 & wdata [30] $end
$var wire 1 ' wdata [29] $end
$var wire 1 ( wdata [28] $end
$var wire 1 ) wdata [27] $end
$var wire 1 * wdata [26] $end
$var wire 1 + wdata [25] $end
$var wire 1 , wdata [24] $end
$var wire 1 - wdata [23] $end
$var wire 1 . wdata [22] $end
$var wire 1 / wdata [21] $end
$var wire 1 0 wdata [20] $end
$var wire 1 1 wdata [19] $end
$var wire 1 2 wdata [18] $end
$var wire 1 3 wdata [17] $end
$var wire 1 4 wdata [16] $end
$var wire 1 5 wdata [15] $end
$var wire 1 6 wdata [14] $end
$var wire 1 7 wdata [13] $end
$var wire 1 8 wdata [12] $end
$var wire 1 9 wdata [11] $end
$var wire 1 : wdata [10] $end
$var wire 1 ; wdata [9] $end
$var wire 1 < wdata [8] $end
$var wire 1 = wdata [7] $end
$var wire 1 > wdata [6] $end
$var wire 1 ? wdata [5] $end
$var wire 1 @ wdata [4] $end
$var wire 1 A wdata [3] $end
$var wire 1 B wdata [2] $end
$var wire 1 C wdata [1] $end
$var wire 1 D wdata [0] $end
$var reg 32 E rdata [31:0] $end
$var reg 5 F count [4:0] $end
$var wire 1 G full $end
$var wire 1 H empty $end
$var wire 1 I overflow $end
$var wire 1 J underflow $end
$var reg 5 K wr_cnt [4:0] $end
$var reg 5 L rd_cnt [4:0] $end
$upscope $end
$upscope $end
$upscope $end
$upscope $end

$scope begin svunit_pkg $end
$upscope $end

$scope begin std $end
$upscope $end
$enddefinitions $end
#0
$dumpvars
bx E
bx F
bx K
bx L
0!
1"
0#
0$
0D
0C
0B
0A
0@
0?
0>
0=
0<
0;
0:
09
08
07
06
05
04
03
02
01
00
0/
0.
0-
0,
0+
0*
0)
0(
0'
0&
0%
xG
xH
0I
0J
$end
#5
0"
#10
1!
1"
b0 K
b0 L
0G
b0 F
1H
#15
0"
#20
1"
#25
0"
#30
0!
1"
#35
0"
#40
1"
#45
0"
#50
1#
1B
1?
1<
1:
18
17
14
12
10
1+
1(
1"
b1 K
b1 F
0H
#55
0"
#60
0#
1$
1"
b1 L
b10010000101010011010100100100 E
b0 F
1H
1J
#65
0"
#70
0$
0J
1"
bx E
#75
0"
#80
1#
1D
0B
0?
1=
0<
1;
19
07
16
02
11
00
1-
0+
0(
1&
1%
1"
b10 K
b1 F
0H
#85
0"
#90
0#
1$
1"
b10 L
b11000000100010010101111010000001 E
b0 F
1H
1J
#95
0"
#100
0$
0J
1"
bx E
#105
0"
#110
1#
1A
0=
09
15
04
12
01
1*
0&
1"
b11 K
b1 F
0H
#115
0"
#120
0#
1$
1"
b11 L
b10000100100001001101011000001001 E
b0 F
1H
1J
#125
0"
#130
0$
0J
1"
bx E
#135
0"
#140
1#
1C
0A
1?
1>
05
02
10
1/
1.
1,
0*
1(
1'
1"
b100 K
b1 F
0H
#145
0"
#150
0#
1$
1"
b100 L
b10110001111100000101011001100011 E
b0 F
1H
1J
#155
0"
#160
0$
0J
1"
bx E
#165
0"
#170
1#
0C
1B
1A
0?
0>
1<
0:
19
17
14
11
0.
0,
1+
1*
0(
0'
0%
1"
b101 K
b1 F
0H
#175
0"
#180
0#
1$
1"
b101 L
b110101110010111101100001101 E
b0 F
1H
1J
#185
0"
#190
0$
0J
1"
bx E
#195
0"
#200
1#
1=
0;
07
06
15
13
12
0/
1.
1&
1"
b110 K
b1 F
0H
#205
0"
#210
0#
1$
1"
b110 L
b1000110110111111001100110001101 E
b0 F
1H
1J
#215
0"
#220
0$
0J
1"
bx E
#225
0"
#230
1#
0A
1?
1>
0=
0<
1:
09
08
04
02
01
00
0*
1(
1'
0&
1%
1"
b111 K
b1 F
0H
#235
0"
#240
0#
1$
1"
b111 L
b10110010110000101000010001100101 E
b0 F
1H
1J
#245
0"
#250
0$
0J
1"
bx E
#255
0"
#260
1#
0D
1C
0B
1@
0?
0>
1;
0:
18
16
05
14
12
10
1/
0.
0-
1,
0+
1)
0(
0'
1"
b1000 K
b1 F
0H
#265
0"
#270
0#
1$
1"
b1000 L
b10001001001101110101001000010010 E
b0 F
1H
1J
#275
0"
#280
0$
0J
1"
bx E
#285
0"
#290
1#
1D
0C
0@
1<
08
17
15
02
1.
1-
0,
0)
0%
1"
b1001 K
b1 F
0H
#295
0"
#300
0#
1$
1"
b1001 L
b111100111110001100000001 E
b0 F
1H
1J
#305
0"
#310
0$
0J
1"
bx E
#315
0"
#320
1#
1B
1A
0;
1:
19
07
12
0/
1+
1*
1"
b1010 K
b1 F
0H
#325
0"
#330
0#
1$
1"
b1010 L
b110110101111100110100001101 E
b0 F
1H
1J
#335
0"
#340
0$
0J
1"
bx E
#345
0"
#350
1#
0D
1C
0A
1@
1?
1>
0:
09
18
17
02
00
1/
0.
0-
1,
0*
1)
1(
1'
1"
b1011 K
b1 F
0H
#355
0"
#360
0#
1$
1"
b1011 L
b111011001000111111000101110110 E
b0 F
1H
1J
#365
0"
#370
0$
0J
1"
bx E
#375
0"
#380
1#
1D
0C
1A
0>
1:
19
08
07
03
12
11
0/
1-
0,
1*
0'
1"
b1100 K
b1 F
0H
#385
0"
#390
0#
1$
1"
b1100 L
b11110100011011100110100111101 E
b0 F
1H
1J
#395
0"
#400
0$
0J
1"
bx E
#405
0"
#410
1#
0@
1>
1=
1;
09
18
05
04
01
10
1.
0)
1'
1&
1"
b1101 K
b1 F
0H
#415
0"
#420
0#
1$
1"
b1101 L
b1110110110101000101011111101101 E
b0 F
1H
1J
#425
0"
#430
0$
0J
1"
bx E
#435
0"
#440
1#
0D
0?
0>
17
15
14
11
00
1/
0.
0-
0(
0'
1"
b1110 K
b1 F
0H
#445
0"
#450
0#
1$
1"
b1110 L
b1000110001011011111011110001100 E
b0 F
1H
1J
#455
0"
#460
0$
0J
1"
bx E
#465
0"
#470
1#
1D
0B
1@
1?
1>
0;
0:
19
08
10
1.
1-
0+
1)
1(
1'
1"
b1111 K
b1 F
0H
#475
0"
#480
0#
1$
1"
b1111 L
b1111100111111011110100111111001 E
b0 F
1H
1J
#485
0"
#490
0$
0J
1"
bx E
#495
0"
#500
1#
0D
1C
1B
0A
0@
0?
0<
1:
09
06
05
13
01
0.
0-
1,
1+
0*
0)
0(
1%
1"
b10000 K
0H
1G
1I
b1 F
0G
0I
#505
0"
#510
0#
1$
1"
b10000 L
b11100011001101110010010011000110 E
b0 F
1H
1J
#515
0"
#520
0$
0J
1"
b10010000101010011010100100100 E
#525
0"
#530
1#
1D
0C
07
15
1.
1-
0,
1"
b10001 K
b1 F
0H
#535
0"
#540
0#
1$
1"
b10001 L
b11100010111101111000010011000101 E
b0 F
1H
1J
#545
0"
#550
0$
0J
1"
b11000000100010010101111010000001 E
#555
0"
#560
1#
0D
1C
0B
1A
1?
0>
1;
0:
18
16
02
0/
0.
0-
1,
0+
1*
1(
0'
1"
b10010 K
b1 F
0H
#565
0"
#570
0#
1$
1"
b10010 L
b11010101000100111101001010101010 E
b0 F
1H
1J
#575
0"
#580
0$
0J
1"
b10000100100001001101011000001001 E
#585
0"
#590
1#
1D
0C
1B
0A
1>
1<
1:
17
12
11
00
1/
1-
0,
1+
0*
1'
0%
1"
b10011 K
b1 F
0H
#595
0"
#600
0#
1$
1"
b10011 L
b1110010101011111111011111100101 E
b0 F
1H
1J
#605
0"
#610
0$
0J
1"
b10110001111100000101011001100011 E
#615
0"
#620
1#
1C
1@
0=
0<
0:
05
04
02
01
10
0/
1.
1,
1)
0&
1%
1"
b10100 K
b1 F
0H
#625
0"
#630
0#
1$
1"
b10100 L
b10111011110100100111001001110111 E
b0 F
1H
1J
#635
0"
#640
0$
0J
0D
0B
0?
0>
1:
07
15
1/
0.
0-
0+
0(
0'
1#
1"
b10101 K
b110101110010111101100001101 E
b1 F
0H
#645
0"
#650
1D
1B
1A
0@
1=
1<
0:
19
03
12
11
00
1.
1-
1+
1*
0)
1&
0%
1"
b10110 K
b10001001001100101101011000010010 E
b10 F
#655
0"
#660
0D
0B
0A
1@
1?
1>
0;
08
17
05
02
01
10
0.
0-
0+
0*
1)
1(
1'
1"
b10111 K
b11 F
#665
0"
#670
1B
1A
0@
0?
0<
1;
1:
09
18
07
06
15
13
12
1.
1+
1*
0)
0(
1%
1"
b11000 K
b100 F
#675
0"
#680
0C
0B
1?
0:
19
17
16
05
03
02
00
0/
0.
0,
0+
1(
1"
b11001 K
b101 F
#685
0"
#690
1D
1B
0A
0?
1:
08
07
13
11
1.
1-
1+
0*
0(
1"
b11010 K
b110 F
#695
0"
#700
0D
1A
1@
0=
1<
0;
0:
03
10
0-
1*
1)
0&
0%
1"
b11011 K
b111 F
#705
0"
#710
1D
1?
0>
1=
0<
17
06
13
12
00
0.
1-
1(
0'
1&
1%
1"
b11100 K
b1000 F
#715
0"
#720
0@
0=
18
07
16
14
02
1/
0)
0&
1"
b11101 K
b1001 F
#725
0"
#730
0A
1>
1;
1:
09
08
17
06
12
01
0*
1'
1"
b11110 K
b1010 F
#735
0"
#740
1C
0B
0:
16
11
1.
1,
0+
1"
b11111 K
b1011 F
#745
0"
#750
0D
1A
0?
0>
1<
1:
07
06
15
02
01
10
0-
1*
0(
0'
0%
1"
b0 K
b1100 F
#755
0"
#760
0C
0A
1=
0<
0:
17
05
11
0.
0,
0*
1&
1%
1"
b1 K
b1101 F
#765
0"
#770
1?
0=
1<
0;
04
03
12
01
00
1.
1(
0&
0%
1"
b10 K
b1110 F
#775
0"
#780
1C
1A
1=
1:
07
16
02
11
10
1,
1*
1&
1"
b11 K
b1111 F
#785
0"
#790
1D
0C
1B
1@
0?
0<
19
15
12
00
0/
1-
0,
1+
1)
0(
1%
1"
b100 K
b10000 F
1G
1I
#795
0"
#800
0#
0I
1"
#805
0"
#810
1$
1"
b10101 L
b1111 F
0G
#815
0"
#820
1"
b10110 L
b1000111111011001101101110001111 E
b1110 F
#825
0"
#830
1"
b10111 L
b1111001001100000110100111110010 E
b1101 F
#835
0"
#840
1"
b11000 L
b11100111011101101001011011001110 E
b1100 F
#845
0"
#850
1"
b11001 L
b11110100000000000111101011101000 E
b1011 F
#855
0"
#860
1"
b11010 L
b11100010110010100100111011000101 E
b1010 F
#865
0"
#870
1"
b11011 L
b101110010110000100100101011100 E
b1001 F
#875
0"
#880
1"
b11100 L
b11011110100011100010100010111101 E
b1000 F
#885
0"
#890
1"
b11101 L
b10010110101010110101100000101101 E
b111 F
#895
0"
#900
1"
b11110 L
b10110010101001110010011001100101 E
b110 F
#905
0"
#910
1"
b11111 L
b10110001111011110110001001100011 E
b101 F
#915
0"
#920
1"
b0 L
b101011100111000011100001010 E
b100 F
#925
0"
#930
1"
b1 L
b11000000001110110010001010000000 E
b11 F
#935
0"
#940
1"
b10 L
b10000011001000010000100100000 E
b10 F
#945
0"
#950
1"
b11 L
b1010101011110000100010110101010 E
b1 F
#955
0"
#960
1"
b100 L
b11001110110011001100110010011101 E
b0 F
1H
1J
#965
0"
#970
0$
0J
0D
1C
0A
1;
18
17
06
05
02
01
1/
0.
0-
1,
0*
1#
1"
b101 K
b10001001001100101101011000010010 E
b1 F
0H
#975
0"
#980
1D
0B
0=
0;
0:
15
14
13
0/
1-
0+
0&
1"
b110 K
b11001011001000000011111010010110 E
b10 F
#985
0"
#990
0C
1B
1A
0@
05
04
03
12
11
10
1/
0,
1+
1*
0)
1"
b111 K
b11 F
#995
0"
#1000
1C
0B
0A
1@
1>
1;
1:
09
07
16
15
14
13
01
00
1,
0+
0*
1)
1'
1"
b1000 K
b100 F
#1005
0"
#1010
1A
0@
1?
1<
0;
19
11
10
0/
1*
0)
1(
0%
1"
b1001 K
b101 F
#1015
0"
#1020
0C
1B
0A
1@
0?
1=
0<
1;
0:
08
17
06
05
04
01
00
1/
0,
1+
0*
1)
0(
1&
1%
1"
b1010 K
b110 F
#1025
0"
#1030
0D
1C
0B
0@
0>
0=
07
16
14
10
0/
0-
1,
0+
0)
0'
0&
1"
b1011 K
b111 F
#1035
0"
#1040
1B
1A
1?
1=
1:
18
17
06
04
1.
1+
1*
1(
1&
1"
b1100 K
b1000 F
#1045
0"
#1050
1D
0C
1@
0?
0=
1<
0;
0:
08
16
15
14
11
1/
1-
0,
1)
0(
0&
0%
1"
b1101 K
b1001 F
#1055
0"
#1060
1C
0@
1>
1=
0<
1;
09
18
05
03
01
00
0/
1,
0)
1'
1&
1%
1"
b1110 K
b1010 F
#1065
0"
#1070
0B
0A
1?
0>
0=
1<
0;
19
08
07
04
0.
0+
0*
1(
0'
0&
0%
1"
b1111 K
b1011 F
#1075
0"
#1080
0D
1A
0?
1:
09
17
14
02
11
0-
1*
0(
1"
b10000 K
b1100 F
#1085
0"
#1090
1>
1=
0<
1;
0:
19
07
06
13
01
10
1/
1.
1'
1&
1%
1"
b10001 K
b1101 F
#1095
0"
#1100
0C
1B
1@
1?
0>
0=
0;
1:
16
03
0.
0,
1+
1)
1(
0'
0&
1"
b10010 K
b1110 F
#1105
0"
#1110
1C
0B
0A
1>
1=
1<
18
17
06
15
04
11
00
1.
1,
0+
0*
1'
1&
0%
1"
b10011 K
b1111 F
#1115
0"
#1120
1A
0@
0?
0>
0:
09
08
16
05
13
12
0.
1*
0)
0(
0'
1"
b10100 K
b10000 F
1G
1I
#1125
0"
#1130
1"
#1135
0"
#1140
0#
0I
1"
b1000101001011100110000110001010 E
#1145
0"
#1150
1$
1"
b101 L
b1111 F
0G
#1155
0"
#1160
1"
b110 L
b10001001100000111011100000010011 E
b1110 F
#1165
0"
#1170
1"
b111 L
b10000110101111000011100000001101 E
b1101 F
#1175
0"
#1180
1"
b1000 L
b10101001101001111101011001010011 E
b1100 F
#1185
0"
#1190
1"
b1001 L
b110101100111111101110101101011 E
b1011 F
#1195
0"
#1200
1"
b1010 L
b11101010101001100010101011010101 E
b1010 F
#1205
0"
#1210
1"
b1011 L
b10000001000101110100101000000010 E
b1001 F
#1215
0"
#1220
1"
b1100 L
b11010111010101100011111010101110 E
b1000 F
#1225
0"
#1230
1"
b1101 L
b1110111111111110100100011101 E
b111 F
#1235
0"
#1240
1"
b1110 L
b11100111110001010111001011001111 E
b110 F
#1245
0"
#1250
1"
b1111 L
b10001100001000100100100100011 E
b101 F
#1255
0"
#1260
1"
b10000 L
b101000010010110010100001010 E
b100 F
#1265
0"
#1270
1"
b10001 L
b11100101011100110000101011001010 E
b11 F
#1275
0"
#1280
1"
b10010 L
b10011110001100010100110000111100 E
b10 F
#1285
0"
#1290
1"
b10011 L
b1111001011010001011110111110010 E
b1 F
#1295
0"
#1300
1"
b10100 L
b1000101001011100110000110001010 E
b0 F
1H
1J
#1305
0"
#1310
1"
#1315
0"
#1320
0$
0J
1"
