testbench/lifo.vcd
$date
	Sat Aug 24 22:05:25 2019
$end
$version
	ModelSim Version 10.3
$end
$timescale
	1ns
$end

$scope module testrunner $end

$scope function build $end
$upscope $end

$scope task run $end
$upscope $end

$scope module __ts $end

$scope function build $end
$upscope $end

$scope task run $end
$upscope $end

$scope module fifo_ut $end

$scope task step $end
$upscope $end

$scope task reset $end
$upscope $end

$scope function build $end
$upscope $end

$scope task setup $end
$upscope $end

$scope task teardown $end
$upscope $end

$scope task run $end

$scope begin test_rst $end
$upscope $end

$scope begin test_write_read_single_data $end
$upscope $end

$scope begin test_write_read_full $end
$upscope $end

$scope begin test_error $end
$upscope $end
$upscope $end

$scope module my_fifo $end
$upscope $end
$upscope $end

$scope module lifo_ut $end

$scope task step $end
$upscope $end

$scope task reset $end
$upscope $end

$scope function build $end
$upscope $end

$scope task setup $end
$upscope $end

$scope task teardown $end
$upscope $end

$scope task run $end

$scope begin test_rst $end
$upscope $end

$scope begin test_write_read_single_data $end
$upscope $end

$scope begin test_write_read_full_stack $end
$upscope $end

$scope begin test_error $end
$upscope $end
$upscope $end

$scope module my_lifo $end
$var wire 1 ! rst $end
$var wire 1 " clk $end
$var wire 1 # en $end
$var wire 1 $ wr $end
$var wire 1 % wdata [7] $end
$var wire 1 & wdata [6] $end
$var wire 1 ' wdata [5] $end
$var wire 1 ( wdata [4] $end
$var wire 1 ) wdata [3] $end
$var wire 1 * wdata [2] $end
$var wire 1 + wdata [1] $end
$var wire 1 , wdata [0] $end
$var reg 8 - rdata [7:0] $end
$var wire 1 . count [3] $end
$var wire 1 / count [2] $end
$var wire 1 0 count [1] $end
$var wire 1 1 count [0] $end
$var wire 1 2 overflow $end
$var wire 1 3 underflow $end
$var wire 1 4 empty $end
$var wire 1 5 full $end
$upscope $end
$upscope $end
$upscope $end
$upscope $end

$scope begin svunit_pkg $end
$upscope $end

$scope begin std $end
$upscope $end
$enddefinitions $end
#0
$dumpvars
bx -
0!
1"
0#
0$
0,
0+
0*
0)
0(
0'
0&
0%
x1
x0
x/
x.
02
03
x4
x5
$end
#1335
0"
#1340
1!
1"
05
14
01
00
0/
0.
#1345
0"
#1350
1"
#1355
0"
#1360
0!
1"
#1365
0"
#1370
1#
1$
1,
1&
1"
04
11
#1375
0"
#1380
0$
1"
b1000001 -
14
01
13
#1385
0"
#1390
1$
0,
1)
1(
1%
03
1"
04
11
#1395
0"
#1400
0$
1"
b11011000 -
14
01
13
#1405
0"
#1410
1$
1'
0%
03
1"
04
11
#1415
0"
#1420
0$
1"
b1111000 -
14
01
13
#1425
0"
#1430
1$
1,
0(
0'
0&
1%
03
1"
04
11
#1435
0"
#1440
0$
1"
b10001001 -
14
01
13
#1445
0"
#1450
1$
1+
1'
1&
03
1"
04
11
#1455
0"
#1460
0$
1"
b11101011 -
14
01
13
#1465
0"
#1470
1$
0,
1*
0)
1(
0&
03
1"
04
11
#1475
0"
#1480
0$
1"
b10110110 -
14
01
13
#1485
0"
#1490
1$
0(
0'
1&
03
1"
04
11
#1495
0"
#1500
0$
1"
b11000110 -
14
01
13
#1505
0"
#1510
1$
1)
1'
0&
03
1"
04
11
#1515
0"
#1520
0$
1"
b10101110 -
14
01
13
#1525
0"
#1530
1$
0+
1(
03
1"
04
11
#1535
0"
#1540
0$
1"
b10111100 -
14
01
13
#1545
0"
#1550
1$
1+
0*
0(
0%
03
1"
04
11
#1555
0"
#1560
0$
1"
b101010 -
14
01
13
#1565
0"
#1570
0#
03
1,
0'
1#
1$
1"
04
11
#1575
0"
#1580
0+
0)
1(
1'
1&
1"
b1011 -
01
10
#1585
0"
#1590
1*
0(
0'
0&
1%
1"
b1110001 -
11
#1595
0"
#1600
1+
1)
1&
0%
1"
b10000101 -
01
00
1/
#1605
0"
#1610
0*
1(
1'
0&
1"
b1001111 -
11
#1615
0"
#1620
0,
1"
b111011 -
01
10
#1625
0"
#1630
1*
1&
1"
b111010 -
11
#1635
0"
#1640
1,
0+
0)
0'
0&
1"
b1111110 -
15
01
00
0/
1.
12
#1645
0"
#1650
0$
02
1"
b10101 -
05
11
10
1/
0.
#1655
0"
#1660
1"
b1111110 -
01
#1665
0"
#1670
1"
b111010 -
11
00
#1675
0"
#1680
1"
b111011 -
01
#1685
0"
#1690
1"
b1001111 -
11
10
0/
#1695
0"
#1700
1"
b10000101 -
01
#1705
0"
#1710
1"
b1110001 -
11
00
#1715
0"
#1720
1"
b1011 -
14
01
13
#1725
0"
#1730
0#
03
0*
1'
1&
1%
1#
1$
1"
04
11
#1735
0"
#1740
1)
0'
1"
b11110001 -
01
10
#1745
0"
#1750
0,
1+
0)
0(
1'
0%
1"
b11011001 -
11
#1755
0"
#1760
0+
1*
1)
0'
1"
b1100010 -
01
00
1/
#1765
0"
#1770
1,
1+
1(
0&
1%
1"
b1001100 -
11
#1775
0"
#1780
0(
1"
b10011111 -
01
10
#1785
0"
#1790
0,
0+
0*
1(
1'
1&
1"
b10001111 -
11
#1795
0"
#1800
1,
1+
1*
0)
0&
1"
b11111000 -
15
01
00
0/
1.
12
#1805
0"
#1810
1"
b10110111 -
#1815
0"
#1820
0#
02
1"
#1825
0"
#1830
1#
0$
1"
05
11
10
1/
0.
#1835
0"
#1840
1"
b11111000 -
01
#1845
0"
#1850
1"
b10001111 -
11
00
#1855
0"
#1860
1"
b10011111 -
01
#1865
0"
#1870
1"
b1001100 -
11
10
0/
#1875
0"
#1880
1"
b1100010 -
01
#1885
0"
#1890
1"
b11011001 -
11
00
#1895
0"
#1900
1"
b11110001 -
14
01
13
#1905
0"
#1910
1"
#1915
0"
#1920
0#
03
1"
